creature,distance,score
interesting,0,9
noble,0,8
noble,1,8
unfashioned,0,3
human,0,5
helpless,0,2
pictured,2,5
guilty,5,1
yellow,3,5
alive,11,8
little,0,4
unsocial,3,3
happy,0,9
capable,0,9
pretended,8,3
happy,0,9
capable,0,9
human,0,5
unfit,0,2
bound,4,2
mild,5,6
most,6,6
fallen,11,2
favourable,3,6
desert,10,4
eternal,3,7
speedy,6,5
happy,8,9
young,0,5
fair,0,9
excellent,0,10
lovely,0,10
lovely,0,10
high,1,5
omnipotent,4,8
perfect,0,10
lovely,0,10
amiable,0,8
deserted,0,2
excellent,0,10
human,0,5
generous,30,9
little,0,4
beautiful,0,9
whole,7,8
another,1,5
fine,1,6
inaccessible,18,3
long,15,5
whole,8,6
tremulous,30,2
greater,13,8
future,2,5
insuperable,6,3
half finished,0,3
shuddering,6,2
human,0,5
angelic,2,7
every,0,5
purest,0,8
future,2,5
every,6,5
impenetrable,7,5
glorious,0,10
useful,3,8
extensive,4,7
rational,0,5
first,0,6
same,0,5
