ADJECTIVE,VALUEADJ,DISTANCE
miserable,0,0
more,7,4
poor,1,11
unremitting,6,14
last,5,13
daily,6,3
each,5,2
abhorred,0,0
bitterest,1,8
all,5,7
hideous,1,1
detestable,0,0
ugly,3,0
hideous,1,0
true,9,3
deadly,1,20
fond,9,7
remote,4,16
firm,5,9
sanguinary,1,3
tormented,2,9
clouded,4,3
dearest,10,9
inevitable,3,5
magic,8,2
fiendish,1,7
miserable,1,5
mistaken,3,16
gigantic,9,0
greater,8,8
connected,8,2
wild,9,3
