[[1289]
 [1169]
 [3020]
 [  15]
 [1289]
 [1427]
 [3697]
 [3020]
 [1427]
 [ 354]
 [3697]
 [1289]
 [ 269]
 [ 354]
 [1289]
 [  68]
 [ 269]
 [1021]
 [  68]
 [   1]
 [1021]
 [ 345]
 [   2]
 [   1]
 [ 345]
 [ 234]
 [   2]
 [  34]
 [ 234]
 [  15]
 [  34]
 [4416]
 [   0]
 [  15]
 [4416]
 [   6]
 [   0]
 [3052]
 [ 293]
 [   6]
 [  23]
 [3052]
 [  64]
 [ 293]
 [  19]
 [  23]
 [  64]
 [  31]
 [  38]
 [  19]
 [  19]
 [  31]
 [   4]
 [  38]
 [  19]
 [   0]
 [   2]
 [   4]
 [3877]
 [   0]
 [   0]
 [   2]
 [3877]
 [  25]
 [   0]
 [   0]
 [  25]
 [  73]
 [   0]
 [   8]
 [  73]
 [ 936]
 [   3]
 [   8]
 [ 169]
 [ 936]
 [ 281]
 [   3]
 [ 169]
 [   3]
 [ 281]
 [2204]
 [   6]
 [   3]
 [1390]
 [2204]
 [   6]
 [ 564]
 [   3]
 [1390]
 [ 836]
 [ 564]
 [ 641]
 [   3]
 [   0]
 [ 836]
 [ 641]
 [   3]
 [   0]
 [   0]
 [   3]
 [1235]
 [  21]
 [   0]
 [   1]
 [1235]
 [   0]
 [  21]
 [   1]
 [   0]
 [   0]
 [   0]
 [   3]
 [   0]
 [   0]
 [4565]
 [   3]
 [   0]
 [   0]
 [4565]
 [ 934]
 [   0]
 [   0]
 [  10]
 [ 934]
 [   7]
 [  10]
 [   5]]