           sentiment        group
mohammed   -0.559032  Arab/Muslim
omar       -4.173560  Arab/Muslim
ahmed       1.145269  Arab/Muslim
ali        -0.019880  Arab/Muslim
youssef     1.712778  Arab/Muslim
abdullah   -2.563726  Arab/Muslim
yasin      -1.163538  Arab/Muslim
hamza      -1.961323  Arab/Muslim
ayaan      -1.318336  Arab/Muslim
syed       -0.294387  Arab/Muslim
samar       1.467242  Arab/Muslim
ahmad      -2.936343  Arab/Muslim
mariam     -3.570952  Arab/Muslim
jana        4.152673  Arab/Muslim
malak      -3.964704  Arab/Muslim
salma       0.420498  Arab/Muslim
nour        0.433491  Arab/Muslim
lian        0.302963  Arab/Muslim
fatima      3.566843  Arab/Muslim
ayesha      1.274059  Arab/Muslim
zahra       2.764903  Arab/Muslim
sana        5.692970  Arab/Muslim
zara       -1.307189  Arab/Muslim
alya        2.328461  Arab/Muslim
zoya       -2.081933  Arab/Muslim
yasmin     -0.434900  Arab/Muslim
alonzo     -2.335097        Black
jamel       4.614808        Black
theo       -0.860906        Black
alphonse   -4.276172        Black
...              ...          ...
paul       -0.331622        White
todd       -1.952828        White
brandon    -1.586209        White
hank        3.056040        White
jonathan    0.023473        White
peter       1.460857        White
wilbur     -1.310794        White
amanda      2.674389        White
courtney   -0.719728        White
heather     1.669784        White
melanie     4.650548        White
sara        5.332498        White
amber       4.227398        White
crystal     9.674521        White
katie       0.687453        White
meredith    1.125206        White
shannon     1.639410        White
betsy       0.189095        White
donna       3.683052        White
kristin     0.814508        White
nancy       3.683146        White
stephanie   1.684999        White
ellen       4.728683        White
lauren      6.537551        White
peggy       2.748258        White
colleen     0.546830        White
emily       5.640653        White
megan       1.515512        White
rachel      1.179694        White
wendy      -0.704728        White

[134 rows x 2 columns]