['alonzo', 'jamel', 'lerone', 'percell', 'theo', 'alphonse', 'jerome', 'leroy', 'rasaan', 'torrance', 'darnell', 'lamar', 'lionel', 'rashaun', 'tyree', 'deion', 'lamont', 'malik', 'terrence', 'tyrone', 'everol', 'lavon', 'marcellus', 'terryl', 'wardell', 'aiesha', 'lashelle', 'nichelle', 'shereen', 'temeka', 'ebony', 'latisha', 'shaniqua', 'tameisha', 'teretha', 'jasmine', 'latonya', 'shanise', 'tanisha', 'tia', 'lakisha', 'latoya', 'sharise', 'tashika', 'yolanda', 'lashandra', 'malika', 'shavonn', 'tawanda', 'yvette']

[[ -9.23978651e-02  -2.42749464e+00]
 [ -4.62466354e+00  -9.85535905e-03]
 [ -3.52611791e-01  -1.21351819e+00]
 [ -1.38000950e-02  -4.28997192e+00]
 [ -4.14831898e-03  -5.48712553e+00]
 [ -1.73455220e+00  -1.94166483e-01]
 [ -3.11448643e-02  -3.48463793e+00]
 [ -2.12301641e-01  -1.65402071e+00]
 [ -6.84273855e-02  -2.71600077e+00]
 [ -1.47980065e-01  -1.98375549e+00]
 [ -7.62261320e-03  -4.88044491e+00]
 [ -3.72631637e-04  -7.89510651e+00]
 [ -2.18037067e-01  -1.63012868e+00]
 [ -8.27888215e-01  -5.74424323e-01]
 [ -8.89746588e-03  -4.72643421e+00]
 [ -8.20655170e-03  -4.80692293e+00]
 [ -1.03363485e-01  -2.32074014e+00]
 [ -1.19715574e-02  -4.43120146e+00]
 [ -1.67406606e-01  -1.86986553e+00]
 [ -2.22564787e+00  -1.14286262e-01]
 [ -1.94469467e+00  -1.54353404e-01]
 [ -7.24793937e-03  -4.93065986e+00]
 [ -8.48097322e-03  -4.77416756e+00]
 [ -7.50431991e+00  -5.50851937e-04]
 [ -5.09975092e-02  -3.00136888e+00]
 [ -1.14153347e+00  -3.84676153e-01]
 [ -4.12284849e+00  -1.63309346e-02]
 [ -2.34494420e-01  -1.56528060e+00]
 [ -7.04772869e+00  -8.69759486e-04]
 [ -2.80664830e-02  -3.58717961e+00]
 [ -6.17108190e-01  -7.75447465e-01]]