[[ -5.32581545e+00  -4.87625234e-03]
 [ -9.63402073e-01  -4.80607605e-01]
 [ -5.26490023e-01  -8.93244815e-01]
 [ -4.85272706e+00  -7.83769284e-03]
 [ -9.24649498e-01  -5.05291678e-01]
 [ -7.76253677e-01  -6.16420554e-01]
 [ -2.08896703e+00  -1.32177985e-01]
 [ -5.25071166e-01  -8.95295843e-01]
 [ -3.27030114e+00  -3.87356137e-02]
 [ -5.14613091e-01  -9.10636292e-01]
 [ -6.84533880e-01  -7.01835315e-01]
 [ -3.27177948e+00  -3.86772705e-02]
 [ -5.71839496e-01  -8.31228595e-01]
 [ -1.32061759e+00  -3.10569160e-01]
 [ -2.21721518e+00  -1.15312077e-01]
 [ -9.39246200e-01  -4.95809600e-01]
 [ -1.36339423e+00  -2.95433487e-01]
 [ -7.83234720e-01  -6.10508936e-01]
 [ -5.41020087e-01  -8.72642578e-01]
 [ -1.32669328e-01  -2.08549689e+00]
 [ -1.86230749e-01  -1.77243950e+00]
 [ -3.10203979e+00  -4.59993376e-02]
 [ -7.04952556e-01  -6.81479548e-01]
 [ -1.66952580e+00  -2.08669254e-01]
 [ -2.38706527e-01  -1.54950059e+00]
 [ -2.74106493e+00  -6.66758657e-02]
 [ -3.96683007e-01  -1.11641131e+00]
 [ -1.84229748e+00  -1.72513372e-01]
 [ -4.66005859e+00  -9.51099426e-03]
 [ -5.33731842e+00  -4.82034770e-03]
 [ -4.24188258e+00  -1.44848953e-02]
 [ -9.67458408e+00  -6.28630097e-05]
 [ -1.09481985e+00  -4.07366736e-01]
 [ -1.40630587e+00  -2.81099583e-01]
 [ -1.81679859e+00  -1.77388098e-01]
 [ -7.92157785e-01  -6.03062542e-01]
 [ -3.70788732e+00  -2.48351462e-02]
 [ -1.18113313e+00  -3.66625357e-01]
 [ -3.70797881e+00  -2.48328455e-02]
 [ -1.85511725e+00  -1.70117846e-01]
 [ -4.73748276e+00  -8.79927145e-03]
 [ -6.53899837e+00  -1.44698244e-03]
 [ -2.81033008e+00  -6.20723627e-02]
 [ -1.00348364e+00  -4.56653318e-01]
 [ -5.64419678e+00  -3.54426251e-03]
 [ -1.71411327e+00  -1.98601401e-01]
 [ -1.44771399e+00  -2.68019497e-01]
 [ -4.01619776e-01  -1.10634760e+00]]