                sentiment
audible         -3.181652
relief           8.407861
exalt            3.434944
limp           -10.450508
disdained       -6.268689
provocation     -8.840176
noisier         -4.739007
spank           -5.628468
unquestionable   2.103356
vileness        -3.723698
grouse          -5.128216
restructure     -2.926007
irritable      -11.668107
mistrust       -11.540156
untouched        1.645535
enthrall         4.716794
obsessive      -11.520147
law-abiding     -0.616253
splatter        -4.785315
undesirable    -10.679694